Introduction to RLSPrivate
…
Weights are by default recorded in grams, so you may want to convert them to kg first:

rls$BioMass <- rls$BioMass/1000 #convert to kg

All metrics

The general purpose function allmetrics will calculate a range of metrics of different types (biomass, diversity and functional groups) for a given grouping variable. Below we calculate all the metrics by SurveyID. We pass in two internal dataframes cryptdat and invertclasses which just specify which families belong to cryptic fish and invertebrates.

data(cryptdat)
data(invertclasses)

dout <- allmetrics(rls, SurveyID, sdat = sdat, survdat = survdat, fdat = fdat, cryptdat = cryptdat, invertclasses = invertclasses)
dout

# A tibble: 45,833 x 10
   SurveyID m1_alpha m1_biomass    B20 m2_fish_alpha m2_invert_alpha
   <chr>       <dbl>      <dbl>  <dbl>         <dbl>           <dbl>
 1 M000105~        7      5.51   5.40             NA              NA
 2 M000105~        8      6.01   5.15             NA              NA
 3 M000105~        5     11.8   10.9              NA              NA
 4 M000105~        4      7.31   7.31             NA              NA
 5 M000105~        5      3.35   3.27             NA              NA
 6 M000105~        4      3.93   3.93             NA              NA
 7 M000105~        5      4.81   4.81             NA              NA
 8 M000105~        2      0.848  0.848            NA              NA
 9 M000105~        4      3.42   3.26             NA              NA
10 M000105~        6      3.39   3.34             NA              NA
# ... with 45,823 more rows, and 4 more variables: FG_richness <dbl>,
#   biomass <dbl>, CTI <dbl>, urchin_abundance <dbl>
…
You could also join survdat to site level data to calculate site level alpha diversity (i.e. average number of fish observed on all surveys at that site):

    #alpha diversity
    rls %>%
        inner_join(survdat) %>%
        calcmetrics(SiteCode, metrics = "alpha")

Joining, by = "SurveyID"

Warning in calcmetrics(., SiteCode, metrics = "alpha"): You are pooling
metrics across >1 method. Consider filtering input data for a single method
first.

# A tibble: 2,530 x 2
   SiteCode alpha
   <chr>    <dbl>
 1 0001      5.73
 2 0002      8.01
 3 0003      7.48
 4 0004      5.83
 5 0005      6.78
 6 0006      9.23
 7 0007      7.18
 8 0008      3.81
 9 0009      6.88
10 0010      8.9 
# ... with 2,520 more rows

If you want to know gamma diversity (total number of species observed at a site), then use the nspp function:

    #gamma diversity by sites 
    rls %>%
        inner_join(survdat) %>%
        nspp(SiteCode)

Joining, by = "SurveyID"

# A tibble: 2,530 x 2
   SiteCode richness
   <chr>       <int>
 1 0001           59
 2 0002          106
 3 0003           60
 4 0004           39
 5 0005           91
 6 0006          124
 7 0007           48
 8 0008           23
 9 0009           40
10 0010           22
# ... with 2,520 more rows
…
